{"league":{"id":314,"name":"Overall","created":"2019-06-25T11:25:49.714514Z","closed":false,"maxEntries":null,"leagueType":"s","scoring":"c","adminEntry":null,"startEvent":1,"codePrivacy":"p","rank":null},"newEntries":{"hasNext":false,"page":1,"results":[]},"standings":{"hasNext":true,"page":1,"results":[{"id":122032,"eventTotal":63,"playerName":"Chris McGowan","rank":1,"lastRank":1,"rankSort":1,"total":2491,"entry":24513,"entryName":"Aúpa Atleti"},{"id":942196,"eventTotal":62,"playerName":"Joshua Bull","rank":2,"lastRank":2,"rankSort":2,"total":2489,"entry":184028,"entryName":"The Bulldozers"},{"id":1423473,"eventTotal":71,"playerName":"Aleksandar Antonov","rank":3,"lastRank":3,"rankSort":3,"total":2482,"entry":277641,"entryName":"@TooGoodFPL (ABVD)"},{"id":10446874,"eventTotal":76,"playerName":"Magnus Carlsen","rank":4,"lastRank":5,"rankSort":4,"total":2479,"entry":1908330,"entryName":"MCT 50% mgfl.bass"},{"id":18302766,"eventTotal":79,"playerName":"Michael Murphy","rank":5,"lastRank":7,"rankSort":5,"total":2471,"entry":3199311,"entryName":"mikey2001"},{"id":770703,"eventTotal":77,"playerName":"Ademir Ovcina","rank":6,"lastRank":9,"rankSort":6,"total":2470,"entry":151003,"entryName":"The Normal One"},{"id":1955767,"eventTotal":87,"playerName":"Mathew Brigham","rank":7,"lastRank":11,"rankSort":7,"total":2468,"entry":380936,"entryName":"Blunder FC"},{"id":3850805,"eventTotal":89,"playerName":"Will Turner","rank":8,"lastRank":12,"rankSort":8,"total":2466,"entry":736356,"entryName":"Martial Mata's LP"},{"id":1639722,"eventTotal":78,"playerName":"Harvey Anderson","rank":9,"lastRank":10,"rankSort":9,"total":2465,"entry":320084,"entryName":"LOCKDOWNPOOKA"},{"id":3346868,"eventTotal":52,"playerName":"Mark May","rank":10,"lastRank":4,"rankSort":10,"total":2461,"entry":641002,"entryName":"EKF uNITED"},{"id":9464404,"eventTotal":58,"playerName":"kenneth herlihy","rank":11,"lastRank":6,"rankSort":11,"total":2459,"entry":1734934,"entryName":"VAR Rocks FC"},{"id":3874438,"eventTotal":58,"playerName":"Sivert Gjertsås","rank":12,"lastRank":8,"rankSort":12,"total":2451,"entry":740828,"entryName":"nkvo"},{"id":592047,"eventTotal":93,"playerName":"Bill Wilkins","rank":13,"lastRank":34,"rankSort":13,"total":2449,"entry":116943,"entryName":"Super Furry Pants"},{"id":599239,"eventTotal":83,"playerName":"Eirik Sørensen","rank":14,"lastRank":22,"rankSort":14,"total":2445,"entry":118373,"entryName":"Skedsmo FK"},{"id":5189122,"eventTotal":91,"playerName":"Tola Carter","rank":15,"lastRank":57,"rankSort":15,"total":2438,"entry":985542,"entryName":"ATeamHasNoName"},{"id":9686422,"eventTotal":72,"playerName":"Joey Daher","rank":16,"lastRank":18,"rankSort":16,"total":2438,"entry":1775478,"entryName":"Red Devils"},{"id":479275,"eventTotal":73,"playerName":"Freddie Wylie","rank":17,"lastRank":19,"rankSort":17,"total":2437,"entry":94779,"entryName":"Nice to michu"},{"id":11061175,"eventTotal":68,"playerName":"Henrik Kjaer","rank":18,"lastRank":16,"rankSort":18,"total":2436,"entry":2013885,"entryName":"ViNakkerWanBisakka"},{"id":3307057,"eventTotal":63,"playerName":"Rok Krasna","rank":19,"lastRank":13,"rankSort":19,"total":2435,"entry":633128,"entryName":"The Hateful XI"},{"id":20920379,"eventTotal":97,"playerName":"AHMED HERAGY","rank":20,"lastRank":73,"rankSort":20,"total":2435,"entry":3601463,"entryName":"HAMADA"},{"id":875,"eventTotal":82,"playerName":"Justin Tay","rank":21,"lastRank":40,"rankSort":21,"total":2434,"entry":206,"entryName":"Ayylmao"},{"id":305218,"eventTotal":72,"playerName":"Ole Moen","rank":22,"lastRank":25,"rankSort":22,"total":2434,"entry":60798,"entryName":"SirNeomelo"},{"id":12157124,"eventTotal":72,"playerName":"Yinka Adeleke","rank":23,"lastRank":27,"rankSort":23,"total":2433,"entry":2194836,"entryName":"Our Year"},{"id":213737,"eventTotal":74,"playerName":"Christopher Berchoux","rank":24,"lastRank":29,"rankSort":24,"total":2433,"entry":42981,"entryName":"FPL CHAMPION"},{"id":1121700,"eventTotal":78,"playerName":"Nathan Woollaston","rank":25,"lastRank":35,"rankSort":25,"total":2433,"entry":219488,"entryName":"TheWoolleyOnes"},{"id":388386,"eventTotal":83,"playerName":"Pranil Sheth","rank":26,"lastRank":36,"rankSort":26,"total":2433,"entry":76913,"entryName":"Bad Team On Paper"},{"id":155191,"eventTotal":70,"playerName":"Dave King","rank":27,"lastRank":26,"rankSort":27,"total":2432,"entry":31296,"entryName":"Chispi & Chancey XI"},{"id":3128672,"eventTotal":82,"playerName":"Scotty Cameron","rank":28,"lastRank":52,"rankSort":28,"total":2430,"entry":598254,"entryName":"TopShaggers"},{"id":7014708,"eventTotal":61,"playerName":"kjell magne fuhr","rank":29,"lastRank":17,"rankSort":29,"total":2428,"entry":1311023,"entryName":"OsmaboyZ"},{"id":286132,"eventTotal":80,"playerName":"Tom Russell","rank":30,"lastRank":51,"rankSort":30,"total":2428,"entry":56879,"entryName":"Monkey Tennis?"},{"id":30615212,"eventTotal":63,"playerName":"8 MMc","rank":31,"lastRank":15,"rankSort":31,"total":2428,"entry":4967387,"entryName":"8MMc"},{"id":7615643,"eventTotal":74,"playerName":"Dexter Hong","rank":32,"lastRank":38,"rankSort":32,"total":2427,"entry":1413769,"entryName":"Martial FC"},{"id":89302,"eventTotal":84,"playerName":"Michael Durey","rank":33,"lastRank":71,"rankSort":33,"total":2426,"entry":17929,"entryName":"Madeleine Milan"},{"id":514631,"eventTotal":65,"playerName":"Emil Freden","rank":34,"lastRank":28,"rankSort":34,"total":2426,"entry":101843,"entryName":"Soturit FC"},{"id":2582424,"eventTotal":74,"playerName":"Kristoffur Sørensen","rank":35,"lastRank":43,"rankSort":35,"total":2425,"entry":496120,"entryName":"Sk8erboi"},{"id":2182459,"eventTotal":66,"playerName":"michael Roux","rank":36,"lastRank":30,"rankSort":36,"total":2424,"entry":421986,"entryName":"Premier Ballers Fc"},{"id":72857,"eventTotal":67,"playerName":"Ethan Clout","rank":37,"lastRank":31,"rankSort":37,"total":2424,"entry":14719,"entryName":"NeverGanaGiveYouUp"},{"id":2370145,"eventTotal":52,"playerName":"Ben Thomson","rank":37,"lastRank":14,"rankSort":38,"total":2424,"entry":457183,"entryName":"Uncle Eldrick"},{"id":9719447,"eventTotal":84,"playerName":"Mohammad Alghanim","rank":39,"lastRank":76,"rankSort":39,"total":2424,"entry":1781232,"entryName":"Special one1@kwt"},{"id":135028,"eventTotal":93,"playerName":"Mohammed Ali","rank":40,"lastRank":114,"rankSort":40,"total":2422,"entry":27134,"entryName":"The Business+"},{"id":8195536,"eventTotal":70,"playerName":"محمود عامر","rank":40,"lastRank":40,"rankSort":41,"total":2422,"entry":1515536,"entryName":"سبحان الله وبحمده"},{"id":22770526,"eventTotal":70,"playerName":"Theodor Eek-Bakke","rank":42,"lastRank":42,"rankSort":42,"total":2421,"entry":3865902,"entryName":"Fratton Park Hotdogs"},{"id":264339,"eventTotal":89,"playerName":"Konstantin Boychinov","rank":43,"lastRank":101,"rankSort":43,"total":2421,"entry":52421,"entryName":"20"},{"id":1795348,"eventTotal":59,"playerName":"Ciaran Keighery","rank":43,"lastRank":23,"rankSort":44,"total":2421,"entry":350738,"entryName":"Ballinasloe Town AFC"},{"id":11499736,"eventTotal":85,"playerName":"Harry Francis","rank":45,"lastRank":91,"rankSort":45,"total":2419,"entry":2084835,"entryName":"Pay your Subs!"},{"id":17068210,"eventTotal":117,"playerName":"sri harsha guntanoor","rank":46,"lastRank":373,"rankSort":46,"total":2419,"entry":3006611,"entryName":"Cham6ionee"},{"id":656060,"eventTotal":91,"playerName":"Mohit Bhandari","rank":47,"lastRank":123,"rankSort":47,"total":2419,"entry":129126,"entryName":"Mohit Mavericks"},{"id":11172708,"eventTotal":55,"playerName":"Michael Beck","rank":48,"lastRank":20,"rankSort":48,"total":2418,"entry":2031854,"entryName":"xamax bacoma"},{"id":5329492,"eventTotal":70,"playerName":"Seán Patrick Cooke","rank":49,"lastRank":50,"rankSort":49,"total":2418,"entry":1007484,"entryName":"Shamrock celtic"},{"id":25817583,"eventTotal":88,"playerName":"Sue Higgins","rank":50,"lastRank":107,"rankSort":50,"total":2418,"entry":4298628,"entryName":"Barn FC"}]}}